{
    "name": "root",
    "metadata": {
        "timer_format_version": "0.1.0",
        "start_time_seconds": "1672826580",
        "python_version": "3.10.7 (main, Nov 24 2022, 19:45:47) [GCC 12.2.0]",
        "command_line_arguments": "/home/joel/.local/bin/mlagents-learn ./environment.yaml --time-scale 20 --run-id ppo2_vel",
        "mlagents_version": "0.30.0",
        "mlagents_envs_version": "0.30.0",
        "communication_protocol_version": "1.5.0",
        "pytorch_version": "1.11.0+cu102",
        "numpy_version": "1.21.2",
        "end_time_seconds": "1672826582"
    },
    "total": 2.099340831002337,
    "count": 1,
    "self": 0.005112831997394096,
    "children": {
        "run_training.setup": {
            "total": 0.011298836005153134,
            "count": 1,
            "self": 0.011298836005153134
        },
        "TrainerController.start_learning": {
            "total": 2.0829291629997897,
            "count": 1,
            "self": 0.0002839209992089309,
            "children": {
                "TrainerController._reset_env": {
                    "total": 2.0826375120013836,
                    "count": 1,
                    "self": 2.0826375120013836
                },
                "trainer_threads": {
                    "total": 7.199996616691351e-07,
                    "count": 1,
                    "self": 7.199996616691351e-07
                },
                "TrainerController._save_models": {
                    "total": 7.009999535512179e-06,
                    "count": 1,
                    "self": 7.009999535512179e-06
                }
            }
        }
    }
}