{
    "name": "root",
    "metadata": {
        "timer_format_version": "0.1.0",
        "start_time_seconds": "1673115071",
        "python_version": "3.10.7 (main, Nov 24 2022, 19:45:47) [GCC 12.2.0]",
        "command_line_arguments": "/home/joel/.local/bin/mlagents-learn ./environment.yaml --time-scale 10 --run-id ppo3_upscale3 --resume",
        "mlagents_version": "0.30.0",
        "mlagents_envs_version": "0.30.0",
        "communication_protocol_version": "1.5.0",
        "pytorch_version": "1.11.0+cu102",
        "numpy_version": "1.21.2",
        "end_time_seconds": "1673115182"
    },
    "total": 110.59123718800001,
    "count": 1,
    "self": 0.005216678000010688,
    "children": {
        "run_training.setup": {
            "total": 0.010207557000001088,
            "count": 1,
            "self": 0.010207557000001088
        },
        "TrainerController.start_learning": {
            "total": 110.575812953,
            "count": 1,
            "self": 0.004786740000326972,
            "children": {
                "TrainerController._reset_env": {
                    "total": 10.959010044000024,
                    "count": 2,
                    "self": 10.959010044000024
                },
                "TrainerController.advance": {
                    "total": 99.31220326399963,
                    "count": 292,
                    "self": 0.004391528999633465,
                    "children": {
                        "env_step": {
                            "total": 99.23206637800007,
                            "count": 292,
                            "self": 96.45246097099945,
                            "children": {
                                "SubprocessEnvManager._take_step": {
                                    "total": 2.7766873109997903,
                                    "count": 292,
                                    "self": 0.11707299800005444,
                                    "children": {
                                        "TorchPolicy.evaluate": {
                                            "total": 2.659614312999736,
                                            "count": 576,
                                            "self": 2.659614312999736
                                        }
                                    }
                                },
                                "workers": {
                                    "total": 0.0029180960008261536,
                                    "count": 291,
                                    "self": 0.0,
                                    "children": {
                                        "worker_root": {
                                            "total": 50.10878117999982,
                                            "count": 291,
                                            "is_parallel": true,
                                            "self": 17.211816302999836,
                                            "children": {
                                                "run_training.setup": {
                                                    "total": 0.0,
                                                    "count": 0,
                                                    "is_parallel": true,
                                                    "self": 0.0,
                                                    "children": {
                                                        "steps_from_proto": {
                                                            "total": 0.022162127999990844,
                                                            "count": 2,
                                                            "is_parallel": true,
                                                            "self": 0.0011454060000062327,
                                                            "children": {
                                                                "_process_rank_one_or_two_observation": {
                                                                    "total": 0.02101672199998461,
                                                                    "count": 4,
                                                                    "is_parallel": true,
                                                                    "self": 0.02101672199998461
                                                                }
                                                            }
                                                        },
                                                        "UnityEnvironment.step": {
                                                            "total": 0.12199677999998926,
                                                            "count": 1,
                                                            "is_parallel": true,
                                                            "self": 0.006011481000030017,
                                                            "children": {
                                                                "UnityEnvironment._generate_step_input": {
                                                                    "total": 0.0038803249999830314,
                                                                    "count": 1,
                                                                    "is_parallel": true,
                                                                    "self": 0.0038803249999830314
                                                                },
                                                                "communicator.exchange": {
                                                                    "total": 0.094460085999998,
                                                                    "count": 1,
                                                                    "is_parallel": true,
                                                                    "self": 0.094460085999998
                                                                },
                                                                "steps_from_proto": {
                                                                    "total": 0.01764488799997821,
                                                                    "count": 2,
                                                                    "is_parallel": true,
                                                                    "self": 0.0007109079999452206,
                                                                    "children": {
                                                                        "_process_rank_one_or_two_observation": {
                                                                            "total": 0.01693398000003299,
                                                                            "count": 4,
                                                                            "is_parallel": true,
                                                                            "self": 0.01693398000003299
                                                                        }
                                                                    }
                                                                }
                                                            }
                                                        }
                                                    }
                                                },
                                                "steps_from_proto": {
                                                    "total": 0.01854563399999165,
                                                    "count": 2,
                                                    "is_parallel": true,
                                                    "self": 0.0007977819999780422,
                                                    "children": {
                                                        "_process_rank_one_or_two_observation": {
                                                            "total": 0.01774785200001361,
                                                            "count": 4,
                                                            "is_parallel": true,
                                                            "self": 0.01774785200001361
                                                        }
                                                    }
                                                },
                                                "UnityEnvironment.step": {
                                                    "total": 32.878419242999996,
                                                    "count": 290,
                                                    "is_parallel": true,
                                                    "self": 1.7297291690002794,
                                                    "children": {
                                                        "UnityEnvironment._generate_step_input": {
                                                            "total": 0.9625571660004368,
                                                            "count": 290,
                                                            "is_parallel": true,
                                                            "self": 0.9625571660004368
                                                        },
                                                        "communicator.exchange": {
                                                            "total": 25.087087263999933,
                                                            "count": 290,
                                                            "is_parallel": true,
                                                            "self": 25.087087263999933
                                                        },
                                                        "steps_from_proto": {
                                                            "total": 5.099045643999347,
                                                            "count": 580,
                                                            "is_parallel": true,
                                                            "self": 0.2020229919981773,
                                                            "children": {
                                                                "_process_rank_one_or_two_observation": {
                                                                    "total": 4.897022652001169,
                                                                    "count": 1160,
                                                                    "is_parallel": true,
                                                                    "self": 4.897022652001169
                                                                }
                                                            }
                                                        }
                                                    }
                                                }
                                            }
                                        }
                                    }
                                }
                            }
                        },
                        "trainer_advance": {
                            "total": 0.07574535699993135,
                            "count": 291,
                            "self": 0.01358594000006974,
                            "children": {
                                "process_trajectory": {
                                    "total": 0.062159416999861605,
                                    "count": 291,
                                    "self": 0.062159416999861605
                                }
                            }
                        }
                    }
                },
                "TrainerController._save_models": {
                    "total": 0.29981290500001023,
                    "count": 1,
                    "self": 0.010095290000037949,
                    "children": {
                        "RLTrainer._checkpoint": {
                            "total": 0.2897176149999723,
                            "count": 1,
                            "self": 0.2897176149999723
                        }
                    }
                }
            }
        }
    }
}