{
    "name": "root",
    "gauges": {
        "Move.Policy.Entropy.mean": {
            "value": 1.0086182355880737,
            "min": 0.9354082942008972,
            "max": 1.9782065153121948,
            "count": 487
        },
        "Move.Policy.Entropy.sum": {
            "value": 81044.4921875,
            "min": 1440.189697265625,
            "max": 157681.953125,
            "count": 487
        },
        "Move.Environment.EpisodeLength.mean": {
            "value": 26.688796680497926,
            "min": 1.8125,
            "max": 30.285714285714285,
            "count": 487
        },
        "Move.Environment.EpisodeLength.sum": {
            "value": 38592.0,
            "min": 58.0,
            "max": 39120.0,
            "count": 487
        },
        "Move.Self-play.ELO.mean": {
            "value": 836.4518017184506,
            "min": 825.6529995359031,
            "max": 1297.101708488508,
            "count": 487
        },
        "Move.Self-play.ELO.sum": {
            "value": 604754.6526424398,
            "min": 8858.174082885047,
            "max": 923649.0083727905,
            "count": 487
        },
        "Move.Step.mean": {
            "value": 15999992.0,
            "min": 419982.0,
            "max": 15999992.0,
            "count": 780
        },
        "Move.Step.sum": {
            "value": 15999992.0,
            "min": 419982.0,
            "max": 15999992.0,
            "count": 780
        },
        "Move.Policy.ExtrinsicValueEstimate.mean": {
            "value": 0.07217741012573242,
            "min": -0.029084831476211548,
            "max": 0.08828622102737427,
            "count": 780
        },
        "Move.Policy.ExtrinsicValueEstimate.sum": {
            "value": 52.184268951416016,
            "min": -3.5999011993408203,
            "max": 64.09579467773438,
            "count": 780
        },
        "Move.Environment.CumulativeReward.mean": {
            "value": 0.14558954333901739,
            "min": 0.00030183262015270884,
            "max": 0.17925116285694362,
            "count": 487
        },
        "Move.Environment.CumulativeReward.sum": {
            "value": 105.26123983410957,
            "min": 0.0024146609612216707,
            "max": 124.35985593461919,
            "count": 487
        },
        "Move.Policy.ExtrinsicReward.mean": {
            "value": 0.14558954333901739,
            "min": 0.00030183262015270884,
            "max": 0.17925116285694362,
            "count": 487
        },
        "Move.Policy.ExtrinsicReward.sum": {
            "value": 105.26123983410957,
            "min": 0.0024146609612216707,
            "max": 124.35985593461919,
            "count": 487
        },
        "Move.IsTraining.mean": {
            "value": 1.0,
            "min": 1.0,
            "max": 1.0,
            "count": 780
        },
        "Move.IsTraining.sum": {
            "value": 1.0,
            "min": 1.0,
            "max": 1.0,
            "count": 780
        },
        "Move.Losses.PolicyLoss.mean": {
            "value": 0.012484475469682366,
            "min": 0.010206240357365459,
            "max": 0.024517336348071694,
            "count": 446
        },
        "Move.Losses.PolicyLoss.sum": {
            "value": 0.024968950939364732,
            "min": 0.010206240357365459,
            "max": 0.04408230159897357,
            "count": 446
        },
        "Move.Losses.ValueLoss.mean": {
            "value": 0.012696998333558439,
            "min": 7.311803778975445e-05,
            "max": 0.016636629099957646,
            "count": 446
        },
        "Move.Losses.ValueLoss.sum": {
            "value": 0.025393996667116878,
            "min": 8.29532705528288e-05,
            "max": 0.03327325819991529,
            "count": 446
        },
        "Move.Policy.LearningRate.mean": {
            "value": 0.0002,
            "min": 0.0002,
            "max": 0.00020000000000000004,
            "count": 446
        },
        "Move.Policy.LearningRate.sum": {
            "value": 0.0004,
            "min": 0.0002,
            "max": 0.0004000000000000001,
            "count": 446
        },
        "Move.Policy.Epsilon.mean": {
            "value": 0.14999999999999997,
            "min": 0.14999999999999997,
            "max": 0.15,
            "count": 446
        },
        "Move.Policy.Epsilon.sum": {
            "value": 0.29999999999999993,
            "min": 0.14999999999999997,
            "max": 0.29999999999999993,
            "count": 446
        },
        "Move.Policy.Beta.mean": {
            "value": 0.0030000000000000005,
            "min": 0.0029999999999999996,
            "max": 0.0030000000000000005,
            "count": 446
        },
        "Move.Policy.Beta.sum": {
            "value": 0.006000000000000001,
            "min": 0.0029999999999999996,
            "max": 0.006000000000000001,
            "count": 446
        }
    },
    "metadata": {
        "timer_format_version": "0.1.0",
        "start_time_seconds": "1672790665",
        "python_version": "3.10.7 (main, Nov 24 2022, 19:45:47) [GCC 12.2.0]",
        "command_line_arguments": "/home/joel/.local/bin/mlagents-learn ./environment.yaml --time-scale 10 --resume",
        "mlagents_version": "0.30.0",
        "mlagents_envs_version": "0.30.0",
        "communication_protocol_version": "1.5.0",
        "pytorch_version": "1.11.0+cu102",
        "numpy_version": "1.21.2",
        "end_time_seconds": "1672808072"
    },
    "total": 17406.412169728,
    "count": 1,
    "self": 0.006572698002855759,
    "children": {
        "run_training.setup": {
            "total": 0.011393173999749706,
            "count": 1,
            "self": 0.011393173999749706
        },
        "TrainerController.start_learning": {
            "total": 17406.394203855998,
            "count": 1,
            "self": 5.567588923684525,
            "children": {
                "TrainerController._reset_env": {
                    "total": 34.190304120986184,
                    "count": 99,
                    "self": 34.190304120986184
                },
                "TrainerController.advance": {
                    "total": 17366.50764730433,
                    "count": 336418,
                    "self": 4.51034614301534,
                    "children": {
                        "env_step": {
                            "total": 11486.401483773043,
                            "count": 336418,
                            "self": 11074.561158933036,
                            "children": {
                                "SubprocessEnvManager._take_step": {
                                    "total": 408.5279375034652,
                                    "count": 336419,
                                    "self": 19.122888703899662,
                                    "children": {
                                        "TorchPolicy.evaluate": {
                                            "total": 389.4050487995655,
                                            "count": 195734,
                                            "self": 389.4050487995655
                                        }
                                    }
                                },
                                "workers": {
                                    "total": 3.3123873365420877,
                                    "count": 336418,
                                    "self": 0.0,
                                    "children": {
                                        "worker_root": {
                                            "total": 19449.01113123738,
                                            "count": 336418,
                                            "is_parallel": true,
                                            "self": 9597.208258723284,
                                            "children": {
                                                "run_training.setup": {
                                                    "total": 0.011393173999749706,
                                                    "count": 1,
                                                    "is_parallel": true,
                                                    "self": 0.0,
                                                    "children": {
                                                        "steps_from_proto": {
                                                            "total": 0.018629078999765625,
                                                            "count": 2,
                                                            "is_parallel": true,
                                                            "self": 0.0009380049996252637,
                                                            "children": {
                                                                "_process_rank_one_or_two_observation": {
                                                                    "total": 0.01769107400014036,
                                                                    "count": 4,
                                                                    "is_parallel": true,
                                                                    "self": 0.01769107400014036
                                                                }
                                                            }
                                                        },
                                                        "UnityEnvironment.step": {
                                                            "total": 0.10457942500033823,
                                                            "count": 1,
                                                            "is_parallel": true,
                                                            "self": 0.005317035001098702,
                                                            "children": {
                                                                "UnityEnvironment._generate_step_input": {
                                                                    "total": 0.003136274999633315,
                                                                    "count": 1,
                                                                    "is_parallel": true,
                                                                    "self": 0.003136274999633315
                                                                },
                                                                "communicator.exchange": {
                                                                    "total": 0.08152151699960086,
                                                                    "count": 1,
                                                                    "is_parallel": true,
                                                                    "self": 0.08152151699960086
                                                                },
                                                                "steps_from_proto": {
                                                                    "total": 0.014604598000005353,
                                                                    "count": 2,
                                                                    "is_parallel": true,
                                                                    "self": 0.0006186540003909613,
                                                                    "children": {
                                                                        "_process_rank_one_or_two_observation": {
                                                                            "total": 0.013985943999614392,
                                                                            "count": 4,
                                                                            "is_parallel": true,
                                                                            "self": 0.013985943999614392
                                                                        }
                                                                    }
                                                                }
                                                            }
                                                        }
                                                    }
                                                },
                                                "steps_from_proto": {
                                                    "total": 1.4993810120076887,
                                                    "count": 196,
                                                    "is_parallel": true,
                                                    "self": 0.06847609199576254,
                                                    "children": {
                                                        "_process_rank_one_or_two_observation": {
                                                            "total": 1.4309049200119262,
                                                            "count": 392,
                                                            "is_parallel": true,
                                                            "self": 1.4309049200119262
                                                        }
                                                    }
                                                },
                                                "UnityEnvironment.step": {
                                                    "total": 9850.29209832809,
                                                    "count": 336416,
                                                    "is_parallel": true,
                                                    "self": 572.8356327472775,
                                                    "children": {
                                                        "UnityEnvironment._generate_step_input": {
                                                            "total": 283.578417618146,
                                                            "count": 336416,
                                                            "is_parallel": true,
                                                            "self": 283.578417618146
                                                        },
                                                        "communicator.exchange": {
                                                            "total": 7434.1482918855145,
                                                            "count": 336416,
                                                            "is_parallel": true,
                                                            "self": 7434.1482918855145
                                                        },
                                                        "steps_from_proto": {
                                                            "total": 1559.7297560771513,
                                                            "count": 672832,
                                                            "is_parallel": true,
                                                            "self": 92.22347928884301,
                                                            "children": {
                                                                "_process_rank_one_or_two_observation": {
                                                                    "total": 1467.5062767883082,
                                                                    "count": 1345664,
                                                                    "is_parallel": true,
                                                                    "self": 1467.5062767883082
                                                                }
                                                            }
                                                        }
                                                    }
                                                },
                                                "TrainerController.start_learning": {
                                                    "total": 0.0,
                                                    "count": 0,
                                                    "is_parallel": true,
                                                    "self": 0.0,
                                                    "children": {
                                                        "TrainerController._reset_env": {
                                                            "total": 28.889436317000218,
                                                            "count": 13,
                                                            "is_parallel": true,
                                                            "self": 28.889436317000218
                                                        },
                                                        "TrainerController.advance": {
                                                            "total": 2023.0306734869464,
                                                            "count": 37080,
                                                            "is_parallel": true,
                                                            "self": 0.5031684509276602,
                                                            "children": {
                                                                "env_step": {
                                                                    "total": 1333.7116557149602,
                                                                    "count": 37080,
                                                                    "is_parallel": true,
                                                                    "self": 1284.8964530469466,
                                                                    "children": {
                                                                        "SubprocessEnvManager._take_step": {
                                                                            "total": 48.3269674299745,
                                                                            "count": 37081,
                                                                            "is_parallel": true,
                                                                            "self": 2.245503575060866,
                                                                            "children": {
                                                                                "TorchPolicy.evaluate": {
                                                                                    "total": 46.081463854913636,
                                                                                    "count": 23108,
                                                                                    "is_parallel": true,
                                                                                    "self": 46.081463854913636
                                                                                }
                                                                            }
                                                                        },
                                                                        "workers": {
                                                                            "total": 0.36002129404187144,
                                                                            "count": 37080,
                                                                            "is_parallel": true,
                                                                            "self": 0.0,
                                                                            "children": {
                                                                                "worker_root": {
                                                                                    "total": 2051.6604856889953,
                                                                                    "count": 37080,
                                                                                    "is_parallel": true,
                                                                                    "self": 905.6702837379953,
                                                                                    "children": {
                                                                                        "run_training.setup": {
                                                                                            "total": 0.0,
                                                                                            "count": 0,
                                                                                            "is_parallel": true,
                                                                                            "self": 0.0,
                                                                                            "children": {
                                                                                                "steps_from_proto": {
                                                                                                    "total": 0.018629078999765625,
                                                                                                    "count": 2,
                                                                                                    "is_parallel": true,
                                                                                                    "self": 0.0009380049996252637,
                                                                                                    "children": {
                                                                                                        "_process_rank_one_or_two_observation": {
                                                                                                            "total": 0.01769107400014036,
                                                                                                            "count": 4,
                                                                                                            "is_parallel": true,
                                                                                                            "self": 0.01769107400014036
                                                                                                        }
                                                                                                    }
                                                                                                },
                                                                                                "UnityEnvironment.step": {
                                                                                                    "total": 0.10457942500033823,
                                                                                                    "count": 1,
                                                                                                    "is_parallel": true,
                                                                                                    "self": 0.005317035001098702,
                                                                                                    "children": {
                                                                                                        "UnityEnvironment._generate_step_input": {
                                                                                                            "total": 0.003136274999633315,
                                                                                                            "count": 1,
                                                                                                            "is_parallel": true,
                                                                                                            "self": 0.003136274999633315
                                                                                                        },
                                                                                                        "communicator.exchange": {
                                                                                                            "total": 0.08152151699960086,
                                                                                                            "count": 1,
                                                                                                            "is_parallel": true,
                                                                                                            "self": 0.08152151699960086
                                                                                                        },
                                                                                                        "steps_from_proto": {
                                                                                                            "total": 0.014604598000005353,
                                                                                                            "count": 2,
                                                                                                            "is_parallel": true,
                                                                                                            "self": 0.0006186540003909613,
                                                                                                            "children": {
                                                                                                                "_process_rank_one_or_two_observation": {
                                                                                                                    "total": 0.013985943999614392,
                                                                                                                    "count": 4,
                                                                                                                    "is_parallel": true,
                                                                                                                    "self": 0.013985943999614392
                                                                                                                }
                                                                                                            }
                                                                                                        }
                                                                                                    }
                                                                                                }
                                                                                            }
                                                                                        },
                                                                                        "steps_from_proto": {
                                                                                            "total": 0.17808502100069745,
                                                                                            "count": 24,
                                                                                            "is_parallel": true,
                                                                                            "self": 0.0075899090043094475,
                                                                                            "children": {
                                                                                                "_process_rank_one_or_two_observation": {
                                                                                                    "total": 0.170495111996388,
                                                                                                    "count": 48,
                                                                                                    "is_parallel": true,
                                                                                                    "self": 0.170495111996388
                                                                                                }
                                                                                            }
                                                                                        },
                                                                                        "UnityEnvironment.step": {
                                                                                            "total": 1145.8121169299993,
                                                                                            "count": 37079,
                                                                                            "is_parallel": true,
                                                                                            "self": 64.8109445240425,
                                                                                            "children": {
                                                                                                "UnityEnvironment._generate_step_input": {
                                                                                                    "total": 32.14402286703444,
                                                                                                    "count": 37079,
                                                                                                    "is_parallel": true,
                                                                                                    "self": 32.14402286703444
                                                                                                },
                                                                                                "communicator.exchange": {
                                                                                                    "total": 875.1088747309277,
                                                                                                    "count": 37079,
                                                                                                    "is_parallel": true,
                                                                                                    "self": 875.1088747309277
                                                                                                },
                                                                                                "steps_from_proto": {
                                                                                                    "total": 173.74827480799468,
                                                                                                    "count": 74158,
                                                                                                    "is_parallel": true,
                                                                                                    "self": 9.600096978801957,
                                                                                                    "children": {
                                                                                                        "_process_rank_one_or_two_observation": {
                                                                                                            "total": 164.14817782919272,
                                                                                                            "count": 148316,
                                                                                                            "is_parallel": true,
                                                                                                            "self": 164.14817782919272
                                                                                                        }
                                                                                                    }
                                                                                                }
                                                                                            }
                                                                                        }
                                                                                    }
                                                                                }
                                                                            }
                                                                        },
                                                                        "steps_from_proto": {
                                                                            "total": 0.023278764998394763,
                                                                            "count": 2,
                                                                            "is_parallel": true,
                                                                            "self": 0.001713424999252311,
                                                                            "children": {
                                                                                "_process_rank_one_or_two_observation": {
                                                                                    "total": 0.021565339999142452,
                                                                                    "count": 4,
                                                                                    "is_parallel": true,
                                                                                    "self": 0.021565339999142452
                                                                                }
                                                                            }
                                                                        },
                                                                        "UnityEnvironment.step": {
                                                                            "total": 0.10493517899885774,
                                                                            "count": 1,
                                                                            "is_parallel": true,
                                                                            "self": 0.005824154997753794,
                                                                            "children": {
                                                                                "UnityEnvironment._generate_step_input": {
                                                                                    "total": 0.0035457800004223827,
                                                                                    "count": 1,
                                                                                    "is_parallel": true,
                                                                                    "self": 0.0035457800004223827
                                                                                },
                                                                                "communicator.exchange": {
                                                                                    "total": 0.07974944099987624,
                                                                                    "count": 1,
                                                                                    "is_parallel": true,
                                                                                    "self": 0.07974944099987624
                                                                                },
                                                                                "steps_from_proto": {
                                                                                    "total": 0.015815803000805317,
                                                                                    "count": 2,
                                                                                    "is_parallel": true,
                                                                                    "self": 0.0007810620008967817,
                                                                                    "children": {
                                                                                        "_process_rank_one_or_two_observation": {
                                                                                            "total": 0.015034740999908536,
                                                                                            "count": 4,
                                                                                            "is_parallel": true,
                                                                                            "self": 0.015034740999908536
                                                                                        }
                                                                                    }
                                                                                }
                                                                            }
                                                                        }
                                                                    }
                                                                },
                                                                "trainer_advance": {
                                                                    "total": 688.8158493210585,
                                                                    "count": 37080,
                                                                    "is_parallel": true,
                                                                    "self": 7.216246854009114,
                                                                    "children": {
                                                                        "process_trajectory": {
                                                                            "total": 95.12821546004943,
                                                                            "count": 37080,
                                                                            "is_parallel": true,
                                                                            "self": 94.57837293505054,
                                                                            "children": {
                                                                                "RLTrainer._checkpoint": {
                                                                                    "total": 0.5498425249988941,
                                                                                    "count": 4,
                                                                                    "is_parallel": true,
                                                                                    "self": 0.5498425249988941
                                                                                }
                                                                            }
                                                                        },
                                                                        "_update_policy": {
                                                                            "total": 586.471387007,
                                                                            "count": 92,
                                                                            "is_parallel": true,
                                                                            "self": 260.65314602799026,
                                                                            "children": {
                                                                                "TorchPPOOptimizer.update": {
                                                                                    "total": 325.8182409790097,
                                                                                    "count": 3512,
                                                                                    "is_parallel": true,
                                                                                    "self": 325.8182409790097
                                                                                }
                                                                            }
                                                                        }
                                                                    }
                                                                }
                                                            }
                                                        }
                                                    }
                                                }
                                            }
                                        }
                                    }
                                }
                            }
                        },
                        "trainer_advance": {
                            "total": 5875.595817388273,
                            "count": 336418,
                            "self": 64.02308602570429,
                            "children": {
                                "process_trajectory": {
                                    "total": 835.3469501365771,
                                    "count": 336418,
                                    "self": 831.1153271015819,
                                    "children": {
                                        "RLTrainer._checkpoint": {
                                            "total": 4.231623034995209,
                                            "count": 32,
                                            "self": 4.231623034995209
                                        }
                                    }
                                },
                                "_update_policy": {
                                    "total": 4976.225781225991,
                                    "count": 782,
                                    "self": 2240.6717697007834,
                                    "children": {
                                        "TorchPPOOptimizer.update": {
                                            "total": 2735.554011525208,
                                            "count": 30228,
                                            "self": 2735.554011525208
                                        }
                                    }
                                }
                            }
                        }
                    }
                },
                "trainer_threads": {
                    "total": 5.499969120137393e-07,
                    "count": 1,
                    "self": 5.499969120137393e-07
                },
                "TrainerController._save_models": {
                    "total": 0.1286629569985962,
                    "count": 1,
                    "self": 0.005357678997825133,
                    "children": {
                        "RLTrainer._checkpoint": {
                            "total": 0.12330527800077107,
                            "count": 1,
                            "self": 0.12330527800077107
                        }
                    }
                }
            }
        }
    }
}